<svg width="24" height="20" viewBox="0 0 24 20" fill="none" xmlns="http://www.w3.org/2000/svg">
<path d="M23.767 17.5789L21.7045 15.9851C22.282 15.9326 22.7995 15.4714 22.7995 14.8189V5.18112C22.7995 4.22484 21.7082 3.66608 20.9094 4.21359L16.7993 7.04867V12.1938L15.5993 11.2675V4.59235C15.5993 3.60233 14.7968 2.79981 13.8068 2.79981H4.64527L1.70519 0.527247C1.44268 0.324742 1.06767 0.369743 0.861418 0.63225L0.126399 1.57727C-0.0761063 1.83978 -0.0311051 2.21479 0.231402 2.4173L1.60019 3.47482L15.5993 14.2976L22.2932 19.4727C22.5557 19.6752 22.9307 19.6302 23.137 19.3677L23.872 18.419C24.0783 18.1602 24.0295 17.7814 23.767 17.5789ZM1.19893 15.4076C1.19893 16.3977 2.00145 17.2002 2.99147 17.2002H13.8068C14.2268 17.2002 14.6093 17.0502 14.9168 16.8064L1.19893 6.20114V15.4076Z" fill="#5091CD"/>
</svg>
