<svg width="40" height="41" viewBox="0 0 40 41" fill="none" xmlns="http://www.w3.org/2000/svg">
<g clip-path="url(#clip0_313_14579)">
<path d="M20.0002 12.4838V9.15047C20.0002 7.31714 18.5002 5.81714 16.6668 5.81714H6.66683C4.8335 5.81714 3.3335 7.31714 3.3335 9.15047V32.4838C3.3335 34.3171 4.8335 35.8171 6.66683 35.8171H33.3335C35.1668 35.8171 36.6668 34.3171 36.6668 32.4838V15.8171C36.6668 13.9838 35.1668 12.4838 33.3335 12.4838H20.0002ZM10.0002 32.4838H6.66683V29.1505H10.0002V32.4838ZM10.0002 25.8171H6.66683V22.4838H10.0002V25.8171ZM10.0002 19.1505H6.66683V15.8171H10.0002V19.1505ZM10.0002 12.4838H6.66683V9.15047H10.0002V12.4838ZM16.6668 32.4838H13.3335V29.1505H16.6668V32.4838ZM16.6668 25.8171H13.3335V22.4838H16.6668V25.8171ZM16.6668 19.1505H13.3335V15.8171H16.6668V19.1505ZM16.6668 12.4838H13.3335V9.15047H16.6668V12.4838ZM31.6668 32.4838H20.0002V29.1505H23.3335V25.8171H20.0002V22.4838H23.3335V19.1505H20.0002V15.8171H31.6668C32.5835 15.8171 33.3335 16.5671 33.3335 17.4838V30.8171C33.3335 31.7338 32.5835 32.4838 31.6668 32.4838ZM30.0002 19.1505H26.6668V22.4838H30.0002V19.1505ZM30.0002 25.8171H26.6668V29.1505H30.0002V25.8171Z" fill="#5091CD"/>
</g>
<defs>
<clipPath id="clip0_313_14579">
<rect width="40" height="40" fill="white" transform="translate(0 0.817139)"/>
</clipPath>
</defs>
</svg>
