<svg width="40" height="41" viewBox="0 0 40 41" fill="none" xmlns="http://www.w3.org/2000/svg">
<g clip-path="url(#clip0_313_14571)">
<path d="M9.13523 14.3309L12.6286 16.266C13.5068 16.7525 14.5446 15.9792 14.2694 15.0528L11.9681 6.81233C11.8031 6.22162 11.1981 5.88649 10.5825 6.04477L1.99381 8.25279C1.03952 8.49813 0.860423 9.74711 1.73865 10.2336L5.23202 12.1687C0.25174 20.4451 3.20469 31.0189 11.8308 35.7973C13.8605 36.9216 16.0374 37.6282 18.2303 37.9191C19.8421 38.1379 21.1624 36.7222 20.7417 35.2158C20.519 34.4184 19.8428 33.7692 18.9712 33.6608C17.2978 33.4579 15.6261 32.9064 14.0843 32.0523C7.62449 28.4739 5.40566 20.5288 9.13523 14.3309ZM20.948 6.41892C21.1707 7.21638 21.8665 7.87641 22.7185 7.97392C24.4002 8.20638 26.0637 8.7284 27.6054 9.58245C34.0653 13.1608 36.2841 21.1059 32.5545 27.3039L29.0611 25.3687C28.1829 24.8822 27.1451 25.6555 27.4203 26.582L29.7217 34.8224C29.8866 35.4131 30.4916 35.7483 31.1073 35.59L39.6959 33.382C40.6502 33.1366 40.8293 31.8876 39.9706 31.412L36.4577 29.466C41.438 21.1896 38.4851 10.6159 29.859 5.83748C27.8293 4.71316 25.6523 4.00657 23.4595 3.71561C21.8477 3.49685 20.5274 4.9126 20.948 6.41892Z" fill="#5091CD"/>
<g clip-path="url(#clip1_313_14571)">
<path d="M21.2558 20.0177C19.3908 19.5526 18.791 19.0718 18.791 18.3229C18.791 17.4637 19.6209 16.8646 21.0093 16.8646C22.176 16.8646 22.7593 17.2902 22.973 17.9682C23.0716 18.2835 23.3427 18.52 23.6878 18.52H23.9342C24.4765 18.52 24.8626 18.0076 24.6737 17.5188C24.3286 16.5887 23.5234 15.8161 22.2417 15.5166V14.9727C22.2417 14.3184 21.6913 13.7902 21.0093 13.7902C20.3274 13.7902 19.777 14.3184 19.777 14.9727V15.4929C18.1831 15.824 16.9014 16.8173 16.9014 18.3387C16.9014 20.1596 18.4706 21.0661 20.7629 21.5943C22.8169 22.0673 23.2277 22.761 23.2277 23.4941C23.2277 24.038 22.8251 24.9051 21.0093 24.9051C19.6537 24.9051 18.9554 24.44 18.6842 23.7778C18.561 23.4704 18.2816 23.2497 17.9448 23.2497H17.7147C17.1643 23.2497 16.7781 23.7857 16.9835 24.2745C17.4518 25.3702 18.5446 26.0166 19.777 26.2688V26.797C19.777 27.4513 20.3274 27.9794 21.0093 27.9794C21.6913 27.9794 22.2417 27.4513 22.2417 26.797V26.2846C23.8439 25.9929 25.1173 25.1022 25.1173 23.4862C25.1173 21.2474 23.1209 20.4828 21.2558 20.0177Z" fill="#5091CD"/>
</g>
</g>
<defs>
<clipPath id="clip0_313_14571">
<rect width="40" height="40" fill="white" transform="translate(0 0.817139)"/>
</clipPath>
<clipPath id="clip1_313_14571">
<rect width="16.9014" height="16.2162" fill="white" transform="translate(12.3945 12.7095)"/>
</clipPath>
</defs>
</svg>
